seamCN coreCN 

measureCN dataCN 
measureDC measureCN


dayIN angleIN 

observationPN         =  anglePV variablesPV             :  measurePT                  
spatialPN contextPN   =  itemPV spacePV                  :  onePT dimensionalPT        
maximumPN valuePN     =  nbonenbsixnbfivePV nbzeroPV     :                             
defaultPN unitPN      =  degreePV                        :  unitPT derivedPT scalePT   
defaultPN valuePN     =  nbzeroPV nbzeroPV               :                             
interimPN contextPN   =  itemPV meterPV                  :  itemPT                     
minimumPN valuePN     =  nbonenbeightnbzeroPV nbzeroPV   :                             
