seamCN coreCN 

measureCN dataCN 
measureDC measureCN


radiationIN reflectedIN groundIN 

defaultPN unitPN      =  megaPV joulePV meterPV nutrientPV dayPV   :  complexPT unitPT      
maximumPN valuePN     =  nbonenbfivePV nbzeroPV                    :                        
minimumPN valuePN     =  nbzeroPV nbzeroPV                         :                        
spatialPN contextPN   =  itemPV spacePV                            :  onePT dimensionalPT   
defaultPN valuePN     =  nbonePV nbzeroPV                          :                        
observationPN         =  solarPV irradiancePV                      :  measurePT             
interimPN contextPN   =  itemPV meterPV                            :  itemPT                
