0 1 49 95 
1 2 9 22 40 
2 3 4 7 8 
3 
4 5 6 
5 
6 
7 
8 
9 10 11 12 15 16 21 
10 
11 
12 13 14 
13 
14 
15 
16 17 18 19 20 
17 
18 
19 
20 
21 
22 23 24 25 
23 
24 
25 26 
26 27 28 29 30 31 32 33 34 35 36 37 38 39 
27 
28 
29 
30 
31 
32 
33 
34 
35 
36 
37 
38 
39 
40 41 45 
41 42 43 44 
42 
43 
44 
45 46 47 48 
46 
47 
48 
49 50 69 86 
50 51 64 
51 52 53 54 55 63 
52 
53 
54 
55 56 57 58 62 
56 
57 
58 59 60 61 
59 
60 
61 
62 
63 
64 65 66 
65 
66 67 68 
67 
68 
69 70 77 79 80 81 82 84 85 
70 71 76 
71 72 73 74 75 
72 
73 
74 
75 
76 
77 78 
78 
79 
80 
81 
82 83 
83 
84 
85 
86 87 
87 88 89 90 
88 
89 
90 91 92 93 94 
91 
92 
93 
94 
95 96 100 101 110 
96 97 98 99 
97 
98 
99 
100 
101 52 102 107 
102 103 104 105 106 62 
103 
104 
105 
106 
107 108 109 
108 
109 
110 111 116 151 
111 112 113 114 115 
112 
113 
114 
115 
116 117 138 
117 118 123 124 125 46 129 130 131 132 133 134 135 136 137 
118 119 120 121 122 
119 
120 
121 
122 
123 
124 
125 126 127 128 
126 
127 
128 
129 
130 
131 
132 
133 
134 
135 
136 
137 
138 139 140 141 149 150 
139 
140 
141 142 143 144 145 146 147 148 
142 
143 
144 
145 
146 
147 
148 
149 
150 
151 152 153 154 155 156 157 158 159 160 161 
152 
153 
154 
155 
156 
157 
158 
159 
160 
161 
162 163 210 262 
163 164 181 189 
164 165 172 
165 166 167 168 169 170 171 
166 
167 
168 
169 
170 
171 
172 169 173 174 175 176 168 177 178 179 180 
173 
174 
175 
176 
177 
178 
179 
180 
181 182 183 184 185 186 187 188 
182 
183 
184 
185 
186 
187 
188 
189 190 199 205 
190 191 196 197 198 
191 192 193 194 195 
192 
193 
194 
195 
196 
197 
198 
199 200 203 204 
200 201 202 
201 
202 
203 
204 
205 177 206 175 168 169 209 
206 207 208 
207 
208 
209 
210 211 218 230 244 258 259 260 
211 212 213 214 171 215 
212 
213 
214 
215 216 217 
216 
217 
218 219 224 
219 220 221 222 223 
220 
221 
222 
223 
224 225 226 227 228 229 
225 
226 
227 
228 
229 
230 231 232 233 243 
231 
232 
233 234 235 236 237 238 239 240 241 242 
234 
235 
236 
237 
238 
239 
240 
241 
242 
243 
244 245 247 257 
245 246 
246 
247 248 249 250 251 255 256 
248 
249 
250 
251 252 253 254 
252 
253 
254 
255 
256 
257 
258 
259 
260 233 261 
261 
262 263 259 304 260 
263 264 
264 265 266 189 270 298 301 
265 
266 267 269 
267 268 
268 
269 
270 271 297 
271 272 295 
272 273 281 
273 274 275 276 279 280 
274 
275 
276 277 278 
277 
278 
279 
280 
281 282 283 284 285 286 287 288 289 290 
282 
283 
284 
285 
286 
287 
288 
289 
290 291 292 293 294 
291 
292 
293 
294 
295 296 
296 
297 
298 299 
299 300 
300 
301 302 
302 303 
303 
304 164 181 305 
305 306 307 308 
306 
307 
308 309 
309 310 312 
310 311 
311 
312 