defaultrootconceptCN
nameableCN 
animalCN
animalCN
locatableCN
areaCN
areaCN
naturCN areaCN 
waterwayCN

defaultrootconceptCN
animalCN
immaterialCN productCN 
dimensionCN 
areaCN
geographicalCN environmentCN 
riverDC riverCN


volgaIN

nameablePN      =  volgaPV                        :                  
flowPN          =  caspianseaPV                   :  seaPT           
durationunitPN  =  kilometerPV                    :  durationunitPT  
durationPN      =  nbthreenbsevennbzeronbzeroPV   :                  
labelPN         =  volgaPV                        :                  
